<svg width="130" height="273" viewBox="0 0 130 273" fill="none" xmlns="http://www.w3.org/2000/svg">
<path d="M26.0481 166L0 273L43 239.511L26.0481 166Z" fill="#70C66A"/>
<path d="M103.952 166L130 273L87 239.511L103.952 166Z" fill="#70C66A"/>
<path d="M64.4207 5.42157V5L64.203 5.21859L63.9852 5V5.43719C58.4477 11.027 2.85426 72.2645 34.8819 246H96.4484C128.492 72.0147 70.1139 10.902 64.4207 5.42157Z" fill="#72CC6B"/>
<path opacity="0.11" d="M102.2 92L104 104.741C87.1121 111.916 68.8131 114.923 50.5807 113.52C45.7174 113.07 40.8219 113.887 36.3495 115.894C31.8771 117.901 27.9729 121.033 25 125C25 125 26.7843 98.7099 28.0634 92.7438L102.2 92Z" fill="#3B1E59"/>
<path opacity="0.7" d="M64.4207 0.430315V0L64.203 0.223128L63.9852 0V0.446257C58.4477 6.15199 2.85426 68.6601 34.8819 246H96.4484C128.492 68.405 70.1139 6.02449 64.4207 0.430315Z" fill="white"/>
<path opacity="0.08" d="M42.3089 152L25 171.15C25.415 188.207 27.1668 205.207 30.2399 222L74 190.068L42.3089 152Z" fill="black"/>
<path d="M31 232L33.4064 246H97.4813L100 232H31Z" fill="#FFD200"/>
<path d="M29.1037 78L28.9764 78.3526C27.1903 82.676 26.2473 87.257 26.191 91.8837L26 92.9562C26 92.9562 61.3505 111.497 100.728 92.2804C100.922 91.64 101.013 90.9766 100.998 90.3117C100.854 86.0731 99.8494 81.8971 98.038 78H29.1037Z" fill="#FFD200"/>
<path d="M31 232L33.4064 246H97.4813L100 232H31Z" fill="#72CC6B"/>
<path d="M29.1037 78L28.9764 78.3526C27.1903 82.676 26.2473 87.257 26.191 91.8837L26 92.9562C26 92.9562 61.3505 111.497 100.728 92.2804C100.922 91.64 101.013 90.9766 100.998 90.3117C100.854 86.0731 99.8494 81.8971 98.038 78H29.1037Z" fill="#72CC6B"/>
<path opacity="0.08" d="M31 232L33.4064 246H97.4813L100 232H31Z" fill="black"/>
<path opacity="0.08" d="M29.1037 78L28.9764 78.3526C27.1903 82.676 26.2473 87.257 26.191 91.8837L26 92.9562C26 92.9562 61.3505 111.497 100.728 92.2804C100.922 91.64 101.013 90.9766 100.998 90.3117C100.854 86.0731 99.8494 81.8971 98.038 78H29.1037Z" fill="black"/>
<path d="M29 78.1943C29 78.1943 62.4565 93.5071 98 78.1943C98 78.1943 93.0134 30.2029 69.323 2.60233C68.6077 1.77243 67.7144 1.10872 66.7073 0.658909C65.7002 0.2091 64.6043 -0.0156388 63.4984 0.000845504C62.3925 0.0173298 61.3041 0.274623 60.3113 0.754242C59.3185 1.23386 58.4461 1.92389 57.7566 2.77473C49.9183 12.4451 36.1852 34.7795 29 78.1943Z" fill="#72CC6B"/>
<path d="M65.5 192C80.6878 192 93 179.688 93 164.5C93 149.312 80.6878 137 65.5 137C50.3122 137 38 149.312 38 164.5C38 179.688 50.3122 192 65.5 192Z" fill="#72CC6B"/>
<path fill-rule="evenodd" clip-rule="evenodd" d="M71.3586 158.846C71.3586 155.333 68.5218 152.462 65.0499 152.462C61.578 152.462 58.7413 155.333 58.7413 158.846C58.7413 162.359 61.578 165.229 65.0499 165.229C68.5218 165.229 71.3586 162.359 71.3586 158.846ZM54.0415 172.555V173.497C56.963 176.154 60.8159 177.782 65.0499 177.782C69.2839 177.782 73.1369 176.154 76.0583 173.497V172.555C76.0583 169.813 73.8567 167.628 71.1892 167.628H58.9106C56.2008 167.628 54.0415 169.856 54.0415 172.555Z" fill="white"/>
</svg>
