<svg width="369" height="369" viewBox="0 0 369 369" fill="none" xmlns="http://www.w3.org/2000/svg">
<circle cx="184.5" cy="184.5" r="184.5" fill="url(#paint0_linear)" fill-opacity="0.6"/>
<path d="M73.2034 194C73.0054 194 72.8434 193.946 72.7174 193.838C72.5914 193.712 72.5284 193.55 72.5284 193.352V175.775C72.5284 175.577 72.5914 175.415 72.7174 175.289C72.8434 175.163 73.0054 175.1 73.2034 175.1H75.3364C75.7144 175.1 75.9844 175.271 76.1464 175.613L81.3574 185.333L86.6224 175.613C86.8024 175.271 87.0724 175.1 87.4324 175.1H89.5384C89.7364 175.1 89.8984 175.163 90.0244 175.289C90.1504 175.415 90.2134 175.577 90.2134 175.775V193.352C90.2134 193.55 90.1504 193.712 90.0244 193.838C89.8984 193.946 89.7364 194 89.5384 194H87.2704C87.0904 194 86.9374 193.937 86.8114 193.811C86.6854 193.685 86.6224 193.532 86.6224 193.352V181.661L82.8424 188.87C82.6084 189.266 82.3024 189.464 81.9244 189.464H80.8174C80.4394 189.464 80.1334 189.266 79.8994 188.87L76.1194 181.661V193.352C76.1194 193.532 76.0564 193.685 75.9304 193.811C75.8224 193.937 75.6694 194 75.4714 194H73.2034ZM100.137 194.27C98.1391 194.27 96.5461 193.694 95.3581 192.542C94.1881 191.372 93.5671 189.734 93.4951 187.628L93.4681 186.953L93.4951 186.278C93.5851 184.226 94.2151 182.615 95.3851 181.445C96.5731 180.275 98.1571 179.69 100.137 179.69C102.261 179.69 103.899 180.338 105.051 181.634C106.221 182.93 106.806 184.658 106.806 186.818V187.385C106.806 187.565 106.743 187.718 106.617 187.844C106.491 187.97 106.329 188.033 106.131 188.033H97.1671V188.249C97.2031 189.239 97.4731 190.076 97.9771 190.76C98.4991 191.426 99.2101 191.759 100.11 191.759C101.172 191.759 102.027 191.345 102.675 190.517C102.837 190.319 102.963 190.193 103.053 190.139C103.161 190.085 103.314 190.058 103.512 190.058H105.834C105.996 190.058 106.131 190.112 106.239 190.22C106.365 190.31 106.428 190.427 106.428 190.571C106.428 191.003 106.167 191.516 105.645 192.11C105.141 192.686 104.412 193.19 103.458 193.622C102.504 194.054 101.397 194.27 100.137 194.27ZM103.134 185.765V185.684C103.134 184.622 102.864 183.767 102.324 183.119C101.802 182.471 101.073 182.147 100.137 182.147C99.2011 182.147 98.4721 182.471 97.9501 183.119C97.4281 183.767 97.1671 184.622 97.1671 185.684V185.765H103.134ZM110.32 194C110.14 194 109.987 193.937 109.861 193.811C109.735 193.685 109.672 193.532 109.672 193.352V180.608C109.672 180.428 109.735 180.275 109.861 180.149C109.987 180.023 110.14 179.96 110.32 179.96H112.561C112.759 179.96 112.912 180.023 113.02 180.149C113.146 180.257 113.209 180.41 113.209 180.608V185.441H119.311V180.608C119.311 180.41 119.374 180.257 119.5 180.149C119.626 180.023 119.779 179.96 119.959 179.96H122.2C122.398 179.96 122.551 180.023 122.659 180.149C122.785 180.257 122.848 180.41 122.848 180.608V193.352C122.848 193.532 122.785 193.685 122.659 193.811C122.551 193.937 122.398 194 122.2 194H119.959C119.779 194 119.626 193.937 119.5 193.811C119.374 193.685 119.311 193.532 119.311 193.352V188.276H113.209V193.352C113.209 193.532 113.146 193.685 113.02 193.811C112.912 193.937 112.759 194 112.561 194H110.32ZM132.542 194.27C130.544 194.27 128.951 193.694 127.763 192.542C126.593 191.372 125.972 189.734 125.9 187.628L125.873 186.953L125.9 186.278C125.99 184.226 126.62 182.615 127.79 181.445C128.978 180.275 130.562 179.69 132.542 179.69C134.666 179.69 136.304 180.338 137.456 181.634C138.626 182.93 139.211 184.658 139.211 186.818V187.385C139.211 187.565 139.148 187.718 139.022 187.844C138.896 187.97 138.734 188.033 138.536 188.033H129.572V188.249C129.608 189.239 129.878 190.076 130.382 190.76C130.904 191.426 131.615 191.759 132.515 191.759C133.577 191.759 134.432 191.345 135.08 190.517C135.242 190.319 135.368 190.193 135.458 190.139C135.566 190.085 135.719 190.058 135.917 190.058H138.239C138.401 190.058 138.536 190.112 138.644 190.22C138.77 190.31 138.833 190.427 138.833 190.571C138.833 191.003 138.572 191.516 138.05 192.11C137.546 192.686 136.817 193.19 135.863 193.622C134.909 194.054 133.802 194.27 132.542 194.27ZM135.539 185.765V185.684C135.539 184.622 135.269 183.767 134.729 183.119C134.207 182.471 133.478 182.147 132.542 182.147C131.606 182.147 130.877 182.471 130.355 183.119C129.833 183.767 129.572 184.622 129.572 185.684V185.765H135.539ZM141.537 196.97C141.357 196.97 141.204 196.907 141.078 196.781C140.952 196.673 140.889 196.52 140.889 196.322V191.786C140.889 191.606 140.952 191.453 141.078 191.327C141.204 191.201 141.357 191.138 141.537 191.138H141.753C142.455 191.138 142.968 190.58 143.292 189.464C143.616 188.348 143.778 186.611 143.778 184.253V180.608C143.778 180.41 143.841 180.257 143.967 180.149C144.093 180.023 144.246 179.96 144.426 179.96H154.038C154.236 179.96 154.389 180.023 154.497 180.149C154.623 180.257 154.686 180.41 154.686 180.608V191.111H155.901C156.099 191.111 156.252 191.174 156.36 191.3C156.486 191.408 156.549 191.561 156.549 191.759V196.322C156.549 196.52 156.486 196.673 156.36 196.781C156.252 196.907 156.099 196.97 155.901 196.97H153.687C153.489 196.97 153.327 196.907 153.201 196.781C153.075 196.655 153.012 196.502 153.012 196.322V194H144.426V196.322C144.426 196.52 144.363 196.673 144.237 196.781C144.129 196.907 143.976 196.97 143.778 196.97H141.537ZM151.176 191.111V182.822H147.18V184.631C147.18 187.727 146.757 189.896 145.911 191.138L151.176 191.111ZM179.687 193.163C179.759 193.253 179.795 193.37 179.795 193.514C179.795 193.658 179.741 193.775 179.633 193.865C179.543 193.955 179.408 194 179.228 194H176.528C176.204 194 175.952 193.865 175.772 193.595L172.235 188.276H170.561V193.352C170.561 193.532 170.498 193.685 170.372 193.811C170.264 193.937 170.111 194 169.913 194H167.726C167.546 194 167.393 193.937 167.267 193.811C167.141 193.685 167.078 193.532 167.078 193.352V188.276H165.404L161.867 193.595C161.651 193.865 161.399 194 161.111 194H158.384C158.222 194 158.087 193.955 157.979 193.865C157.871 193.775 157.817 193.658 157.817 193.514C157.817 193.406 157.862 193.289 157.952 193.163L162.407 186.71L158.519 180.797C158.447 180.707 158.411 180.59 158.411 180.446C158.411 180.302 158.456 180.185 158.546 180.095C158.654 180.005 158.798 179.96 158.978 179.96H161.381C161.561 179.96 161.705 179.996 161.813 180.068C161.921 180.14 162.029 180.248 162.137 180.392L165.377 185.441H167.078V180.608C167.078 180.41 167.141 180.257 167.267 180.149C167.393 180.023 167.546 179.96 167.726 179.96H169.913C170.111 179.96 170.264 180.023 170.372 180.149C170.498 180.257 170.561 180.41 170.561 180.608V185.441H172.208L175.502 180.392C175.682 180.104 175.925 179.96 176.231 179.96H178.661C178.823 179.96 178.958 180.005 179.066 180.095C179.174 180.185 179.228 180.302 179.228 180.446C179.228 180.554 179.183 180.671 179.093 180.797L175.205 186.71L179.687 193.163ZM196.925 179.96C197.069 179.96 197.195 180.014 197.303 180.122C197.429 180.23 197.492 180.347 197.492 180.473V193.433C197.492 193.595 197.438 193.73 197.33 193.838C197.222 193.946 197.078 194 196.898 194H194.576C194.396 194 194.252 193.946 194.144 193.838C194.054 193.73 194.009 193.595 194.009 193.433V185.873L191.12 191.192C190.994 191.408 190.868 191.57 190.742 191.678C190.634 191.786 190.472 191.84 190.256 191.84H189.365C189.167 191.84 189.005 191.786 188.879 191.678C188.753 191.57 188.636 191.408 188.528 191.192L185.639 185.981V193.433C185.639 193.595 185.585 193.73 185.477 193.838C185.369 193.946 185.234 194 185.072 194H182.75C182.57 194 182.426 193.946 182.318 193.838C182.21 193.73 182.156 193.595 182.156 193.433V180.473C182.156 180.347 182.21 180.23 182.318 180.122C182.426 180.014 182.552 179.96 182.696 179.96H184.964C185.27 179.96 185.504 180.113 185.666 180.419L189.824 187.979L193.982 180.419C194.144 180.113 194.378 179.96 194.684 179.96H196.925ZM207.188 194.27C205.19 194.27 203.597 193.694 202.409 192.542C201.239 191.372 200.618 189.734 200.546 187.628L200.519 186.953L200.546 186.278C200.636 184.226 201.266 182.615 202.436 181.445C203.624 180.275 205.208 179.69 207.188 179.69C209.312 179.69 210.95 180.338 212.102 181.634C213.272 182.93 213.857 184.658 213.857 186.818V187.385C213.857 187.565 213.794 187.718 213.668 187.844C213.542 187.97 213.38 188.033 213.182 188.033H204.218V188.249C204.254 189.239 204.524 190.076 205.028 190.76C205.55 191.426 206.261 191.759 207.161 191.759C208.223 191.759 209.078 191.345 209.726 190.517C209.888 190.319 210.014 190.193 210.104 190.139C210.212 190.085 210.365 190.058 210.563 190.058H212.885C213.047 190.058 213.182 190.112 213.29 190.22C213.416 190.31 213.479 190.427 213.479 190.571C213.479 191.003 213.218 191.516 212.696 192.11C212.192 192.686 211.463 193.19 210.509 193.622C209.555 194.054 208.448 194.27 207.188 194.27ZM210.185 185.765V185.684C210.185 184.622 209.915 183.767 209.375 183.119C208.853 182.471 208.124 182.147 207.188 182.147C206.252 182.147 205.523 182.471 205.001 183.119C204.479 183.767 204.218 184.622 204.218 185.684V185.765H210.185ZM217.371 194C217.191 194 217.038 193.937 216.912 193.811C216.786 193.685 216.723 193.532 216.723 193.352V180.608C216.723 180.428 216.786 180.275 216.912 180.149C217.038 180.023 217.191 179.96 217.371 179.96H219.612C219.81 179.96 219.963 180.023 220.071 180.149C220.197 180.257 220.26 180.41 220.26 180.608V185.441H226.362V180.608C226.362 180.41 226.425 180.257 226.551 180.149C226.677 180.023 226.83 179.96 227.01 179.96H229.251C229.449 179.96 229.602 180.023 229.71 180.149C229.836 180.257 229.899 180.41 229.899 180.608V193.352C229.899 193.532 229.836 193.685 229.71 193.811C229.602 193.937 229.449 194 229.251 194H227.01C226.83 194 226.677 193.937 226.551 193.811C226.425 193.685 226.362 193.532 226.362 193.352V188.276H220.26V193.352C220.26 193.532 220.197 193.685 220.071 193.811C219.963 193.937 219.81 194 219.612 194H217.371ZM237.838 194C237.658 194 237.505 193.937 237.379 193.811C237.253 193.685 237.19 193.532 237.19 193.352V182.822H232.789C232.609 182.822 232.456 182.759 232.33 182.633C232.204 182.507 232.141 182.345 232.141 182.147V180.608C232.141 180.41 232.204 180.257 232.33 180.149C232.456 180.023 232.609 179.96 232.789 179.96H245.047C245.245 179.96 245.407 180.023 245.533 180.149C245.659 180.275 245.722 180.428 245.722 180.608V182.147C245.722 182.327 245.659 182.489 245.533 182.633C245.407 182.759 245.245 182.822 245.047 182.822H240.673V193.352C240.673 193.532 240.61 193.685 240.484 193.811C240.376 193.937 240.223 194 240.025 194H237.838ZM254.68 194C254.5 194 254.347 193.937 254.221 193.811C254.095 193.685 254.032 193.532 254.032 193.352V180.608C254.032 180.428 254.095 180.275 254.221 180.149C254.347 180.023 254.5 179.96 254.68 179.96H260.674C262.528 179.96 263.923 180.302 264.859 180.986C265.813 181.67 266.29 182.624 266.29 183.848C266.29 184.568 266.155 185.144 265.885 185.576C265.615 185.99 265.21 186.359 264.67 186.683C265.3 186.971 265.786 187.403 266.128 187.979C266.488 188.555 266.668 189.203 266.668 189.923C266.668 191.237 266.182 192.245 265.21 192.947C264.238 193.649 262.825 194 260.971 194H254.68ZM260.62 185.684C261.34 185.684 261.907 185.54 262.321 185.252C262.735 184.946 262.942 184.505 262.942 183.929C262.942 183.371 262.744 182.975 262.348 182.741C261.952 182.507 261.376 182.39 260.62 182.39H257.488V185.684H260.62ZM260.728 191.57C261.466 191.57 262.042 191.435 262.456 191.165C262.888 190.877 263.104 190.454 263.104 189.896C263.104 189.302 262.906 188.87 262.51 188.6C262.132 188.33 261.538 188.195 260.728 188.195H257.488V191.57H260.728ZM276.916 194C276.736 194 276.583 193.937 276.457 193.811C276.331 193.685 276.268 193.532 276.268 193.352V175.748C276.268 175.55 276.331 175.397 276.457 175.289C276.583 175.163 276.736 175.1 276.916 175.1H279.454C279.652 175.1 279.805 175.163 279.913 175.289C280.039 175.397 280.102 175.55 280.102 175.748V193.352C280.102 193.532 280.039 193.685 279.913 193.811C279.805 193.937 279.652 194 279.454 194H276.916ZM289.142 194C288.962 194 288.809 193.937 288.683 193.811C288.557 193.685 288.494 193.532 288.494 193.352V178.421H283.499C283.319 178.421 283.166 178.358 283.04 178.232C282.914 178.106 282.851 177.953 282.851 177.773V175.775C282.851 175.577 282.905 175.415 283.013 175.289C283.139 175.163 283.301 175.1 283.499 175.1H297.269C297.467 175.1 297.629 175.163 297.755 175.289C297.881 175.415 297.944 175.577 297.944 175.775V177.773C297.944 177.953 297.881 178.106 297.755 178.232C297.629 178.358 297.467 178.421 297.269 178.421H292.301V193.352C292.301 193.532 292.238 193.685 292.112 193.811C291.986 193.937 291.824 194 291.626 194H289.142Z" fill="white"/>
<defs>
<linearGradient id="paint0_linear" x1="57.0959" y1="-14.6279" x2="352.013" y2="381.269" gradientUnits="userSpaceOnUse">
<stop stop-color="#86BBED" stop-opacity="0.92"/>
<stop offset="1" stop-color="#2A84DA"/>
</linearGradient>
</defs>
</svg>
