<svg width="30" height="21" viewBox="0 0 30 21" fill="none" xmlns="http://www.w3.org/2000/svg">
<path d="M0.22729 1.4605C4.45895 4.25021 11.8842 9.15815 14.0666 10.6885C14.3595 10.895 14.6738 11 15 11C15.3255 11 15.6392 10.896 15.9315 10.6904C18.1158 9.15862 25.541 4.25021 29.7727 1.4605C30.0362 1.28715 30.0763 0.982451 29.863 0.770519C29.37 0.280794 28.6348 0 27.8469 0H2.15306C1.36521 0 0.629981 0.280794 0.13696 0.770566C-0.0763395 0.982451 -0.0361728 1.28715 0.22729 1.4605Z" fill="#68C677"/>
<path d="M29.6375 4.75587C29.4159 4.67051 29.1553 4.70029 28.971 4.83065C24.4049 8.03449 18.5773 12.1412 16.7438 13.5086C15.7147 14.2775 14.2864 14.2775 13.255 13.5076C11.3006 12.0502 4.75641 7.44544 1.02902 4.8306C0.843457 4.70024 0.582246 4.67148 0.36252 4.75582C0.141621 4.84074 0 5.02362 0 5.22518V18.2346C0 19.3759 1.12119 20.3039 2.50002 20.3039H27.5C28.8788 20.3039 30 19.3759 30 18.2346V5.22518C30 5.02362 29.8584 4.84026 29.6375 4.75587Z" fill="#68C677"/>
</svg>
