<svg width="27" height="18" viewBox="0 0 27 18" fill="none" xmlns="http://www.w3.org/2000/svg">
<path d="M0.204561 1.32773C4.01305 3.86383 10.6958 8.32559 12.6599 9.71678C12.9236 9.90454 13.2064 10 13.5 10C13.793 10 14.0753 9.90544 14.3384 9.71857C16.3042 8.32602 22.9869 3.86383 26.7954 1.32773C27.0326 1.17014 27.0687 0.893137 26.8767 0.700472C26.433 0.255267 25.7713 0 25.0622 0H1.93776C1.22869 0 0.566982 0.255267 0.123264 0.700515C-0.0687056 0.893137 -0.0325555 1.17014 0.204561 1.32773Z" fill="#D6D6D6"/>
<path d="M26.6737 4.04329C26.4743 3.96667 26.2398 3.9934 26.0739 4.11042C21.9644 6.98636 16.7195 10.6727 15.0694 11.9002C14.1432 12.5904 12.8578 12.5904 11.9295 11.8993C10.1706 10.5911 4.28077 6.4576 0.926121 4.11038C0.759111 3.99336 0.524021 3.96754 0.326268 4.04325C0.127459 4.11948 0 4.28364 0 4.46457V16.1425C0 17.167 1.00907 18 2.25002 18H24.75C25.9909 18 27 17.167 27 16.1425V4.46457C27 4.28364 26.8725 4.11904 26.6737 4.04329Z" fill="#D6D6D6"/>
</svg>
