<svg width="391" height="391" viewBox="0 0 391 391" fill="none" xmlns="http://www.w3.org/2000/svg">
<circle cx="195.5" cy="195.5" r="195.5" fill="url(#paint0_linear)"/>
<path d="M146.621 208.753C146.423 208.753 146.261 208.69 146.135 208.564C146.027 208.456 145.973 208.303 145.973 208.105V202.273C145.973 202.075 146.036 201.922 146.162 201.814C146.288 201.688 146.441 201.625 146.621 201.625H147.161C148.007 201.625 148.628 200.851 149.024 199.303C149.42 197.737 149.618 195.433 149.618 192.391V186.748C149.618 186.55 149.681 186.397 149.807 186.289C149.933 186.163 150.086 186.1 150.266 186.1H161.849C162.047 186.1 162.209 186.163 162.335 186.289C162.461 186.415 162.524 186.577 162.524 186.775V201.625H163.82C164.018 201.625 164.18 201.688 164.306 201.814C164.432 201.94 164.495 202.093 164.495 202.273V208.105C164.495 208.285 164.432 208.438 164.306 208.564C164.18 208.69 164.018 208.753 163.82 208.753H161.39C161.21 208.753 161.057 208.69 160.931 208.564C160.805 208.456 160.742 208.303 160.742 208.105V205H149.726V208.105C149.726 208.303 149.663 208.456 149.537 208.564C149.411 208.69 149.249 208.753 149.051 208.753H146.621ZM158.771 201.625V189.475H153.236V192.877C153.236 195.091 153.11 196.909 152.858 198.331C152.624 199.753 152.255 200.851 151.751 201.625H158.771ZM179.969 190.96C180.131 190.96 180.275 191.023 180.401 191.149C180.527 191.257 180.59 191.392 180.59 191.554V204.352C180.59 204.532 180.527 204.685 180.401 204.811C180.275 204.937 180.122 205 179.942 205H177.701C177.521 205 177.368 204.937 177.242 204.811C177.116 204.685 177.053 204.532 177.053 204.352V195.685L170.573 204.568C170.411 204.856 170.168 205 169.844 205H167.792C167.63 205 167.486 204.946 167.36 204.838C167.234 204.712 167.171 204.559 167.171 204.379V191.608C167.171 191.428 167.234 191.275 167.36 191.149C167.486 191.023 167.639 190.96 167.819 190.96H170.06C170.258 190.96 170.411 191.023 170.519 191.149C170.645 191.257 170.708 191.41 170.708 191.608V200.302L177.188 191.392C177.386 191.104 177.629 190.96 177.917 190.96H179.969ZM189.393 205.27C187.953 205.27 186.783 205.063 185.883 204.649C185.001 204.217 184.353 203.695 183.939 203.083C183.543 202.471 183.327 201.868 183.291 201.274V201.193C183.291 201.067 183.336 200.968 183.426 200.896C183.534 200.806 183.651 200.761 183.777 200.761H185.991C186.171 200.761 186.306 200.797 186.396 200.869C186.504 200.941 186.594 201.058 186.666 201.22C186.846 201.742 187.17 202.12 187.638 202.354C188.124 202.57 188.754 202.678 189.528 202.678C190.32 202.678 190.95 202.525 191.418 202.219C191.886 201.913 192.12 201.445 192.12 200.815C192.12 199.591 191.391 198.979 189.933 198.979H188.448C188.268 198.979 188.124 198.925 188.016 198.817C187.908 198.709 187.854 198.565 187.854 198.385V197.251C187.854 197.089 187.908 196.954 188.016 196.846C188.124 196.72 188.268 196.657 188.448 196.657H189.825C190.473 196.657 190.959 196.54 191.283 196.306C191.607 196.054 191.769 195.667 191.769 195.145C191.769 194.623 191.58 194.191 191.202 193.849C190.824 193.489 190.212 193.309 189.366 193.309C188.556 193.309 187.971 193.435 187.611 193.687C187.251 193.939 186.972 194.353 186.774 194.929C186.684 195.091 186.585 195.208 186.477 195.28C186.387 195.352 186.252 195.388 186.072 195.388H183.939C183.795 195.388 183.669 195.343 183.561 195.253C183.453 195.145 183.408 195.019 183.426 194.875C183.462 194.155 183.687 193.48 184.101 192.85C184.533 192.22 185.19 191.707 186.072 191.311C186.954 190.897 188.061 190.69 189.393 190.69C191.373 190.69 192.831 191.077 193.767 191.851C194.721 192.625 195.198 193.561 195.198 194.659C195.198 195.361 195.063 195.946 194.793 196.414C194.541 196.882 194.109 197.269 193.497 197.575C194.937 198.133 195.657 199.312 195.657 201.112C195.657 202.408 195.081 203.425 193.929 204.163C192.795 204.901 191.283 205.27 189.393 205.27ZM202.519 205.27C201.601 205.27 200.755 205.09 199.981 204.73C199.225 204.352 198.622 203.848 198.172 203.218C197.74 202.588 197.524 201.895 197.524 201.139C197.524 199.915 198.019 198.925 199.009 198.169C199.999 197.413 201.358 196.9 203.086 196.63L206.785 196.09V195.523C206.785 194.731 206.587 194.137 206.191 193.741C205.795 193.345 205.156 193.147 204.274 193.147C203.68 193.147 203.194 193.264 202.816 193.498C202.456 193.714 202.168 193.93 201.952 194.146C201.736 194.38 201.592 194.533 201.52 194.605C201.448 194.821 201.313 194.929 201.115 194.929H199.036C198.874 194.929 198.73 194.875 198.604 194.767C198.496 194.659 198.442 194.515 198.442 194.335C198.46 193.885 198.676 193.372 199.09 192.796C199.522 192.22 200.179 191.725 201.061 191.311C201.943 190.897 203.023 190.69 204.301 190.69C206.425 190.69 207.973 191.167 208.945 192.121C209.917 193.075 210.403 194.326 210.403 195.874V204.352C210.403 204.532 210.34 204.685 210.214 204.811C210.106 204.937 209.953 205 209.755 205H207.568C207.388 205 207.235 204.937 207.109 204.811C206.983 204.685 206.92 204.532 206.92 204.352V203.299C206.524 203.875 205.957 204.352 205.219 204.73C204.499 205.09 203.599 205.27 202.519 205.27ZM203.437 202.705C204.427 202.705 205.237 202.381 205.867 201.733C206.497 201.085 206.812 200.14 206.812 198.898V198.331L204.112 198.763C203.068 198.925 202.276 199.186 201.736 199.546C201.214 199.906 200.953 200.347 200.953 200.869C200.953 201.445 201.196 201.895 201.682 202.219C202.168 202.543 202.753 202.705 203.437 202.705ZM226.665 190.96C226.827 190.96 226.971 191.023 227.097 191.149C227.223 191.257 227.286 191.392 227.286 191.554V204.352C227.286 204.532 227.223 204.685 227.097 204.811C226.971 204.937 226.818 205 226.638 205H224.397C224.217 205 224.064 204.937 223.938 204.811C223.812 204.685 223.749 204.532 223.749 204.352V195.685L217.269 204.568C217.107 204.856 216.864 205 216.54 205H214.488C214.326 205 214.182 204.946 214.056 204.838C213.93 204.712 213.867 204.559 213.867 204.379V191.608C213.867 191.428 213.93 191.275 214.056 191.149C214.182 191.023 214.335 190.96 214.515 190.96H216.756C216.954 190.96 217.107 191.023 217.215 191.149C217.341 191.257 217.404 191.41 217.404 191.608V200.302L223.884 191.392C224.082 191.104 224.325 190.96 224.613 190.96H226.665ZM220.725 189.124C219.195 189.124 218.079 188.791 217.377 188.125C216.675 187.441 216.324 186.568 216.324 185.506C216.324 185.362 216.369 185.245 216.459 185.155C216.549 185.047 216.675 184.993 216.837 184.993H218.376C218.538 184.993 218.664 185.047 218.754 185.155C218.844 185.245 218.889 185.362 218.889 185.506C218.889 186.532 219.501 187.045 220.725 187.045C221.949 187.045 222.561 186.532 222.561 185.506C222.561 185.362 222.606 185.245 222.696 185.155C222.786 185.047 222.912 184.993 223.074 184.993H224.64C224.802 184.993 224.928 185.047 225.018 185.155C225.108 185.245 225.153 185.362 225.153 185.506C225.153 186.568 224.793 187.441 224.073 188.125C223.371 188.791 222.255 189.124 220.725 189.124ZM231.337 205C231.157 205 231.004 204.937 230.878 204.811C230.752 204.685 230.689 204.532 230.689 204.352V191.608C230.689 191.428 230.752 191.275 230.878 191.149C231.004 191.023 231.157 190.96 231.337 190.96H233.578C233.776 190.96 233.929 191.023 234.037 191.149C234.163 191.257 234.226 191.41 234.226 191.608V196.441H240.328V191.608C240.328 191.41 240.391 191.257 240.517 191.149C240.643 191.023 240.796 190.96 240.976 190.96H243.217C243.415 190.96 243.568 191.023 243.676 191.149C243.802 191.257 243.865 191.41 243.865 191.608V204.352C243.865 204.532 243.802 204.685 243.676 204.811C243.568 204.937 243.415 205 243.217 205H240.976C240.796 205 240.643 204.937 240.517 204.811C240.391 204.685 240.328 204.532 240.328 204.352V199.276H234.226V204.352C234.226 204.532 234.163 204.685 234.037 204.811C233.929 204.937 233.776 205 233.578 205H231.337Z" fill="white"/>
<defs>
<linearGradient id="paint0_linear" x1="51.1455" y1="-8.58878e-06" x2="370.924" y2="436.888" gradientUnits="userSpaceOnUse">
<stop stop-color="#FFDED5"/>
<stop offset="1" stop-color="#EB9982"/>
</linearGradient>
</defs>
</svg>
