<svg width="11" height="11" viewBox="0 0 11 11" fill="none" xmlns="http://www.w3.org/2000/svg">
<circle r="5.5" transform="matrix(-1 0 0 1 5.5 5.5)" fill="url(#paint0_linear)"/>
<defs>
<linearGradient id="paint0_linear" x1="1.01806" y1="-0.459368" x2="10.4658" y2="11" gradientUnits="userSpaceOnUse">
<stop stop-color="#E3E3E3"/>
<stop offset="1" stop-color="#ACACAC"/>
</linearGradient>
</defs>
</svg>
