<svg width="15" height="15" viewBox="0 0 15 15" fill="none" xmlns="http://www.w3.org/2000/svg">
<circle cx="7.5" cy="7.5" r="7.5" fill="url(#paint0_linear)" fill-opacity="0.6"/>
<defs>
<linearGradient id="paint0_linear" x1="2.32097" y1="-0.594629" x2="14.3095" y2="15.4987" gradientUnits="userSpaceOnUse">
<stop stop-color="#86BBED" stop-opacity="0.92"/>
<stop offset="1" stop-color="#2A84DA"/>
</linearGradient>
</defs>
</svg>
